R manual
…
[1] 2014

data$Year %>% min()

[1] 2012

# Exercise 3
data %>%
  group_by(ST) %>%
  summarize(AvgMIC = mean(meropenem_MIC_clean)) %>%
  arrange(desc(AvgMIC))

# A tibble: 250 × 2
   ST     AvgMIC
   <chr>   <dbl>
 1 ST1961   48  
 2 ST3666   48  
 3 ST512    43.3
 4 ST258    31.0
 5 ST525    18.7
 6 ST395    16.4
 7 ST449    16.0
 8 ST38     16  
 9 ST101    13.3
10 ST274    10  
# ℹ 240 more rows
…
